percentage,n_seg,classifier,accuracies
69,1,SVC,0.9871355060034306,0.9888507718696398,0.9905660377358491,0.9871355060034306,0.9897084048027445,0.9854202401372213,0.9897084048027445,0.9871355060034306,0.9879931389365352,0.9905660377358491
69,1,GaussianNB,0.8078902229845626,0.8361921097770154,0.8190394511149228,0.8241852487135506,0.8190394511149228,0.8327615780445969,0.8267581475128645,0.8241852487135506,0.8198970840480274,0.8293310463121784
69,5,KNeighborsClassifier,0.9957264957264957,0.9957264957264957,1.0,0.9957264957264957,1.0,1.0,1.0,1.0,1.0,0.9957264957264957
69,5,LogisticRegression,0.9700854700854701,0.9829059829059829,0.9829059829059829,0.9743589743589743,0.9786324786324786,0.9871794871794872,0.9914529914529915,0.9957264957264957,0.9700854700854701,0.9786324786324786
69,5,LinearDiscriminantAnalysis,0.9658119658119658,0.9786324786324786,0.9743589743589743,0.9700854700854701,0.9615384615384616,0.9871794871794872,0.9786324786324786,0.9743589743589743,0.9871794871794872,0.9829059829059829
69,5,DecisionTreeClassifier,0.9487179487179487,0.9572649572649573,0.9658119658119658,0.9444444444444444,0.9700854700854701,0.9700854700854701,0.9572649572649573,0.9743589743589743,0.9487179487179487,0.9401709401709402
69,1,RandomForestClassifier,0.9897084048027445,0.9914236706689536,0.9888507718696398,0.9905660377358491,0.9922813036020584,0.9879931389365352,0.9897084048027445,0.9862778730703259,0.9922813036020584,0.9922813036020584
69,1,KNeighborsClassifier,0.9922813036020584,0.9931389365351629,0.9957118353344768,0.9922813036020584,0.9974271012006861,0.9939965694682675,0.9957118353344768,0.9914236706689536,0.9948542024013722,0.9965694682675815
69,1,LogisticRegression,0.9691252144082333,0.9742710120068611,0.9759862778730704,0.967409948542024,0.9691252144082333,0.9639794168096055,0.9708404802744426,0.9751286449399656,0.9691252144082333,0.9777015437392796
69,1,LinearDiscriminantAnalysis,0.9554030874785592,0.9614065180102916,0.9682675814751286,0.9596912521440824,0.9554030874785592,0.9622641509433962,0.9656946826758147,0.9751286449399656,0.9596912521440824,0.9648370497427101
69,1,DecisionTreeClassifier,0.9562607204116638,0.9716981132075472,0.9579759862778731,0.9579759862778731,0.9554030874785592,0.9614065180102916,0.9579759862778731,0.9571183533447685,0.9545454545454546,0.9656946826758147
